<?xml version="1.0" encoding="UTF-8" standalone="no"?>
<!-- Created with Inkscape (http://www.inkscape.org/) -->

<svg
   xmlns:dc="http://purl.org/dc/elements/1.1/"
   xmlns:cc="http://creativecommons.org/ns#"
   xmlns:rdf="http://www.w3.org/1999/02/22-rdf-syntax-ns#"
   xmlns:svg="http://www.w3.org/2000/svg"
   xmlns="http://www.w3.org/2000/svg"
   xmlns:sodipodi="http://sodipodi.sourceforge.net/DTD/sodipodi-0.dtd"
   xmlns:inkscape="http://www.inkscape.org/namespaces/inkscape"
   width="210mm"
   height="297mm"
   viewBox="0 0 744.09448819 1052.3622047"
   id="svg2"
   version="1.1"
   inkscape:version="0.91 r13725"
   sodipodi:docname="conc-binary-compare.svg"
   inkscape:export-filename="C:\cygwin\home\axel22\workspaces\scala\progfun-slides\images\conc-binary-compare.png"
   inkscape:export-xdpi="55.77"
   inkscape:export-ydpi="55.77">
  <defs
     id="defs4" />
  <sodipodi:namedview
     id="base"
     pagecolor="#ffffff"
     bordercolor="#666666"
     borderopacity="1.0"
     inkscape:pageopacity="0.0"
     inkscape:pageshadow="2"
     inkscape:zoom="0.35355339"
     inkscape:cx="2638.2771"
     inkscape:cy="299.26834"
     inkscape:document-units="px"
     inkscape:current-layer="layer1"
     showgrid="false"
     inkscape:window-width="1600"
     inkscape:window-height="877"
     inkscape:window-x="-4"
     inkscape:window-y="-4"
     inkscape:window-maximized="1" />
  <metadata
     id="metadata7">
    <rdf:RDF>
      <cc:Work
         rdf:about="">
        <dc:format>image/svg+xml</dc:format>
        <dc:type
           rdf:resource="http://purl.org/dc/dcmitype/StillImage" />
        <dc:title />
      </cc:Work>
    </rdf:RDF>
  </metadata>
  <g
     inkscape:label="Layer 1"
     inkscape:groupmode="layer"
     id="layer1">
    <rect
       transform="matrix(0.70710678,-0.70710678,0.70710678,0.70710678,0,0)"
       y="2565.835"
       x="2304.1177"
       height="76"
       width="76"
       id="rect5448"
       style="fill:none;fill-opacity:1;stroke:#000000;stroke-width:5;stroke-miterlimit:4;stroke-dasharray:none;stroke-dashoffset:0;stroke-opacity:1" />
    <path
       style="fill:none;fill-rule:evenodd;stroke:#000000;stroke-width:5;stroke-linecap:butt;stroke-linejoin:miter;stroke-miterlimit:4;stroke-dasharray:none;stroke-opacity:1"
       d="m 3492.755,231.21067 -33.7104,79.9994 79.9994,0 -36.2262,-79.49626"
       id="path5450"
       inkscape:connector-curvature="0" />
    <text
       sodipodi:linespacing="125%"
       id="text5452"
       y="145.86304"
       x="2527.2896"
       style="font-style:normal;font-weight:normal;font-size:68.74373627px;line-height:125%;font-family:sans-serif;letter-spacing:0px;word-spacing:0px;fill:#000000;fill-opacity:1;stroke:none;stroke-width:1px;stroke-linecap:butt;stroke-linejoin:miter;stroke-opacity:1"
       xml:space="preserve"><tspan
         y="145.86304"
         x="2527.2896"
         id="tspan5454"
         sodipodi:role="line">1</tspan></text>
    <rect
       style="fill:none;fill-opacity:1;stroke:#000000;stroke-width:5;stroke-miterlimit:4;stroke-dasharray:none;stroke-dashoffset:0;stroke-opacity:1"
       id="rect5468"
       width="76"
       height="76"
       x="1935.3225"
       y="2694.6335"
       transform="matrix(0.70710678,-0.70710678,0.70710678,0.70710678,0,0)" />
    <path
       inkscape:connector-curvature="0"
       id="path5470"
       d="m 3319.2499,582.04752 -56.9507,135.15159 135.1516,0 -61.2007,-134.30158"
       style="fill:none;fill-rule:evenodd;stroke:#000000;stroke-width:5;stroke-linecap:butt;stroke-linejoin:miter;stroke-miterlimit:4;stroke-dasharray:none;stroke-opacity:1" />
    <text
       xml:space="preserve"
       style="font-style:normal;font-weight:normal;font-size:68.74373627px;line-height:125%;font-family:sans-serif;letter-spacing:0px;word-spacing:0px;fill:#000000;fill-opacity:1;stroke:none;stroke-width:1px;stroke-linecap:butt;stroke-linejoin:miter;stroke-opacity:1"
       x="2357.584"
       y="561.35754"
       id="text5472"
       sodipodi:linespacing="125%"><tspan
         sodipodi:role="line"
         id="tspan5474"
         x="2357.584"
         y="561.35754">1</tspan></text>
    <rect
       style="fill:none;fill-opacity:1;stroke:#000000;stroke-width:5;stroke-miterlimit:4;stroke-dasharray:none;stroke-dashoffset:0;stroke-opacity:1"
       id="rect5476"
       width="76"
       height="76"
       x="1757.9954"
       y="3111.9585"
       transform="matrix(0.70710678,-0.70710678,0.70710678,0.70710678,0,0)" />
    <path
       inkscape:connector-curvature="0"
       id="path5478"
       d="m 3492.755,1003.5479 -33.7104,79.9994 79.9994,0 -36.2262,-79.4963"
       style="fill:none;fill-rule:evenodd;stroke:#000000;stroke-width:5;stroke-linecap:butt;stroke-linejoin:miter;stroke-miterlimit:4;stroke-dasharray:none;stroke-opacity:1" />
    <text
       xml:space="preserve"
       style="font-style:normal;font-weight:normal;font-size:68.74373627px;line-height:125%;font-family:sans-serif;letter-spacing:0px;word-spacing:0px;fill:#000000;fill-opacity:1;stroke:none;stroke-width:1px;stroke-linecap:butt;stroke-linejoin:miter;stroke-opacity:1"
       x="2527.2896"
       y="982.20026"
       id="text5480"
       sodipodi:linespacing="125%"><tspan
         sodipodi:role="line"
         id="tspan5482"
         x="2527.2896"
         y="982.20026">1</tspan></text>
    <rect
       transform="matrix(0.70710678,-0.70710678,0.70710678,0.70710678,0,0)"
       y="2990.9585"
       x="1638.9954"
       height="76"
       width="76"
       id="rect5484"
       style="fill:none;fill-opacity:1;stroke:#000000;stroke-width:5;stroke-miterlimit:4;stroke-dasharray:none;stroke-dashoffset:0;stroke-opacity:1" />
    <path
       style="fill:none;fill-rule:evenodd;stroke:#000000;stroke-width:5;stroke-linecap:butt;stroke-linejoin:miter;stroke-miterlimit:4;stroke-dasharray:none;stroke-opacity:1"
       d="m 3319.2499,1001.1156 -56.9507,135.1516 135.1516,0 -61.2007,-134.3016"
       id="path5486"
       inkscape:connector-curvature="0" />
    <text
       sodipodi:linespacing="125%"
       id="text5488"
       y="980.42566"
       x="2357.584"
       style="font-style:normal;font-weight:normal;font-size:68.74373627px;line-height:125%;font-family:sans-serif;letter-spacing:0px;word-spacing:0px;fill:#000000;fill-opacity:1;stroke:none;stroke-width:1px;stroke-linecap:butt;stroke-linejoin:miter;stroke-opacity:1"
       xml:space="preserve"><tspan
         y="980.42566"
         x="2357.584"
         id="tspan5490"
         sodipodi:role="line">1</tspan></text>
    <rect
       style="fill:none;fill-opacity:1;stroke:#000000;stroke-width:5;stroke-miterlimit:4;stroke-dasharray:none;stroke-dashoffset:0;stroke-opacity:1"
       id="rect5492"
       width="76"
       height="76"
       x="2500.1179"
       y="2761.8347"
       transform="matrix(0.70710678,-0.70710678,0.70710678,0.70710678,0,0)" />
    <path
       inkscape:connector-curvature="0"
       id="path5494"
       d="m 3769.9409,231.21067 -33.7104,79.9994 79.9994,0 -36.2262,-79.49626"
       style="fill:none;fill-rule:evenodd;stroke:#000000;stroke-width:5;stroke-linecap:butt;stroke-linejoin:miter;stroke-miterlimit:4;stroke-dasharray:none;stroke-opacity:1" />
    <text
       xml:space="preserve"
       style="font-style:normal;font-weight:normal;font-size:68.74373627px;line-height:125%;font-family:sans-serif;letter-spacing:0px;word-spacing:0px;fill:#000000;fill-opacity:1;stroke:none;stroke-width:1px;stroke-linecap:butt;stroke-linejoin:miter;stroke-opacity:1"
       x="2804.4753"
       y="145.86304"
       id="text5496"
       sodipodi:linespacing="125%"><tspan
         sodipodi:role="line"
         id="tspan5498"
         x="2804.4753"
         y="145.86304">1</tspan></text>
    <text
       sodipodi:linespacing="125%"
       id="text5504"
       y="247.63869"
       x="3609.365"
       style="font-style:normal;font-weight:normal;font-size:105.40853882px;line-height:125%;font-family:sans-serif;letter-spacing:0px;word-spacing:0px;fill:#000000;fill-opacity:1;stroke:none;stroke-width:1px;stroke-linecap:butt;stroke-linejoin:miter;stroke-opacity:1"
       xml:space="preserve"><tspan
         y="247.63869"
         x="3609.365"
         id="tspan5506"
         sodipodi:role="line">A</tspan></text>
    <rect
       transform="matrix(0.70710678,-0.70710678,0.70710678,0.70710678,0,0)"
       y="3005.6335"
       x="2256.3188"
       height="76"
       width="76"
       id="rect5520"
       style="fill:none;fill-opacity:1;stroke:#000000;stroke-width:5;stroke-miterlimit:4;stroke-dasharray:none;stroke-dashoffset:0;stroke-opacity:1" />
    <path
       style="fill:none;fill-rule:evenodd;stroke:#000000;stroke-width:5;stroke-linecap:butt;stroke-linejoin:miter;stroke-miterlimit:4;stroke-dasharray:none;stroke-opacity:1"
       d="m 3769.9409,575.99451 -33.7104,79.9994 79.9994,0 -36.2262,-79.49626"
       id="path5522"
       inkscape:connector-curvature="0" />
    <text
       sodipodi:linespacing="125%"
       id="text5524"
       y="560.64685"
       x="2804.4753"
       style="font-style:normal;font-weight:normal;font-size:68.74373627px;line-height:125%;font-family:sans-serif;letter-spacing:0px;word-spacing:0px;fill:#000000;fill-opacity:1;stroke:none;stroke-width:1px;stroke-linecap:butt;stroke-linejoin:miter;stroke-opacity:1"
       xml:space="preserve"><tspan
         y="560.64685"
         x="2804.4753"
         id="tspan5526"
         sodipodi:role="line">1</tspan></text>
    <text
       xml:space="preserve"
       style="font-style:normal;font-weight:normal;font-size:105.40853882px;line-height:125%;font-family:sans-serif;letter-spacing:0px;word-spacing:0px;fill:#000000;fill-opacity:1;stroke:none;stroke-width:1px;stroke-linecap:butt;stroke-linejoin:miter;stroke-opacity:1"
       x="3609.365"
       y="592.42249"
       id="text5528"
       sodipodi:linespacing="125%"><tspan
         sodipodi:role="line"
         id="tspan5530"
         x="3609.365"
         y="592.42249">A</tspan></text>
    <rect
       style="fill:none;fill-opacity:1;stroke:#000000;stroke-width:5;stroke-miterlimit:4;stroke-dasharray:none;stroke-dashoffset:0;stroke-opacity:1"
       id="rect5532"
       width="76"
       height="76"
       x="1955.9977"
       y="3305.9585"
       transform="matrix(0.70710678,-0.70710678,0.70710678,0.70710678,0,0)" />
    <path
       inkscape:connector-curvature="0"
       id="path5534"
       d="m 3769.9409,1000.7195 -33.7104,79.9994 79.9994,0 -36.2262,-79.4963"
       style="fill:none;fill-rule:evenodd;stroke:#000000;stroke-width:5;stroke-linecap:butt;stroke-linejoin:miter;stroke-miterlimit:4;stroke-dasharray:none;stroke-opacity:1" />
    <text
       xml:space="preserve"
       style="font-style:normal;font-weight:normal;font-size:68.74373627px;line-height:125%;font-family:sans-serif;letter-spacing:0px;word-spacing:0px;fill:#000000;fill-opacity:1;stroke:none;stroke-width:1px;stroke-linecap:butt;stroke-linejoin:miter;stroke-opacity:1"
       x="2804.4753"
       y="983.37183"
       id="text5536"
       sodipodi:linespacing="125%"><tspan
         sodipodi:role="line"
         id="tspan5538"
         x="2804.4753"
         y="983.37183">1</tspan></text>
    <text
       sodipodi:linespacing="125%"
       id="text5540"
       y="1017.1475"
       x="3609.365"
       style="font-style:normal;font-weight:normal;font-size:105.40853882px;line-height:125%;font-family:sans-serif;letter-spacing:0px;word-spacing:0px;fill:#000000;fill-opacity:1;stroke:none;stroke-width:1px;stroke-linecap:butt;stroke-linejoin:miter;stroke-opacity:1"
       xml:space="preserve"><tspan
         y="1017.1475"
         x="3609.365"
         id="tspan5542"
         sodipodi:role="line">A</tspan></text>
    <rect
       transform="matrix(0.70710678,-0.70710678,0.70710678,0.70710678,0,0)"
       y="3048.9585"
       x="1246.9954"
       height="76"
       width="76"
       id="rect5550"
       style="fill:none;fill-opacity:1;stroke:#000000;stroke-width:5;stroke-miterlimit:4;stroke-dasharray:none;stroke-dashoffset:0;stroke-opacity:1" />
    <path
       style="fill:none;fill-rule:evenodd;stroke:#000000;stroke-width:5;stroke-linecap:butt;stroke-linejoin:miter;stroke-miterlimit:4;stroke-dasharray:none;stroke-opacity:1"
       d="m 3078.8839,1314.0159 -90.3775,214.478 214.478,0 -97.1221,-213.1291"
       id="path5552"
       inkscape:connector-curvature="0" />
    <text
       xml:space="preserve"
       style="font-style:normal;font-weight:normal;font-size:68.74373627px;line-height:125%;font-family:sans-serif;letter-spacing:0px;word-spacing:0px;fill:#000000;fill-opacity:1;stroke:none;stroke-width:1px;stroke-linecap:butt;stroke-linejoin:miter;stroke-opacity:1"
       x="2128.4812"
       y="1346.4054"
       id="text5554"
       sodipodi:linespacing="125%"><tspan
         sodipodi:role="line"
         id="tspan5556"
         x="2128.4812"
         y="1346.4054">1</tspan></text>
    <text
       sodipodi:linespacing="125%"
       id="text5558"
       y="1348.2002"
       x="2527.2896"
       style="font-style:normal;font-weight:normal;font-size:68.74373627px;line-height:125%;font-family:sans-serif;letter-spacing:0px;word-spacing:0px;fill:#000000;fill-opacity:1;stroke:none;stroke-width:1px;stroke-linecap:butt;stroke-linejoin:miter;stroke-opacity:1"
       xml:space="preserve"><tspan
         y="1348.2002"
         x="2527.2896"
         id="tspan5560"
         sodipodi:role="line">0</tspan></text>
    <text
       xml:space="preserve"
       style="font-style:normal;font-weight:normal;font-size:68.74373627px;line-height:125%;font-family:sans-serif;letter-spacing:0px;word-spacing:0px;fill:#000000;fill-opacity:1;stroke:none;stroke-width:1px;stroke-linecap:butt;stroke-linejoin:miter;stroke-opacity:1"
       x="2349.584"
       y="1346.4257"
       id="text5562"
       sodipodi:linespacing="125%"><tspan
         sodipodi:role="line"
         id="tspan5564"
         x="2349.584"
         y="1346.4257">0</tspan></text>
    <text
       xml:space="preserve"
       style="font-style:normal;font-weight:normal;font-size:68.74373627px;line-height:125%;font-family:sans-serif;letter-spacing:0px;word-spacing:0px;fill:#000000;fill-opacity:1;stroke:none;stroke-width:1px;stroke-linecap:butt;stroke-linejoin:miter;stroke-opacity:1"
       x="2527.2896"
       y="560.2002"
       id="text5566"
       sodipodi:linespacing="125%"><tspan
         sodipodi:role="line"
         id="tspan5568"
         x="2527.2896"
         y="560.2002">0</tspan></text>
    <text
       xml:space="preserve"
       style="font-style:normal;font-weight:normal;font-size:55.50901794px;line-height:125%;font-family:sans-serif;letter-spacing:0px;word-spacing:0px;fill:#000000;fill-opacity:1;stroke:none;stroke-width:1px;stroke-linecap:butt;stroke-linejoin:miter;stroke-opacity:1"
       x="3479.9036"
       y="202.73148"
       id="text5570"
       sodipodi:linespacing="125%"><tspan
         sodipodi:role="line"
         id="tspan5572"
         x="3479.9036"
         y="202.73148">0</tspan></text>
    <text
       sodipodi:linespacing="125%"
       id="text5574"
       y="202.73148"
       x="3757.0896"
       style="font-style:normal;font-weight:normal;font-size:55.50901794px;line-height:125%;font-family:sans-serif;letter-spacing:0px;word-spacing:0px;fill:#000000;fill-opacity:1;stroke:none;stroke-width:1px;stroke-linecap:butt;stroke-linejoin:miter;stroke-opacity:1"
       xml:space="preserve"><tspan
         y="202.73148"
         x="3757.0896"
         id="tspan5576"
         sodipodi:role="line">0</tspan></text>
    <text
       xml:space="preserve"
       style="font-style:normal;font-weight:normal;font-size:55.50901794px;line-height:125%;font-family:sans-serif;letter-spacing:0px;word-spacing:0px;fill:#000000;fill-opacity:1;stroke:none;stroke-width:1px;stroke-linecap:butt;stroke-linejoin:miter;stroke-opacity:1"
       x="3757.0896"
       y="551.31433"
       id="text5578"
       sodipodi:linespacing="125%"><tspan
         sodipodi:role="line"
         id="tspan5580"
         x="3757.0896"
         y="551.31433">0</tspan></text>
    <text
       sodipodi:linespacing="125%"
       id="text5582"
       y="972.80884"
       x="3757.0896"
       style="font-style:normal;font-weight:normal;font-size:55.50901794px;line-height:125%;font-family:sans-serif;letter-spacing:0px;word-spacing:0px;fill:#000000;fill-opacity:1;stroke:none;stroke-width:1px;stroke-linecap:butt;stroke-linejoin:miter;stroke-opacity:1"
       xml:space="preserve"><tspan
         y="972.80884"
         x="3757.0896"
         id="tspan5584"
         sodipodi:role="line">0</tspan></text>
    <text
       xml:space="preserve"
       style="font-style:normal;font-weight:normal;font-size:55.50901794px;line-height:125%;font-family:sans-serif;letter-spacing:0px;word-spacing:0px;fill:#000000;fill-opacity:1;stroke:none;stroke-width:1px;stroke-linecap:butt;stroke-linejoin:miter;stroke-opacity:1"
       x="3482.7322"
       y="972.80884"
       id="text5586"
       sodipodi:linespacing="125%"><tspan
         sodipodi:role="line"
         id="tspan5588"
         x="3482.7322"
         y="972.80884">0</tspan></text>
    <text
       sodipodi:linespacing="125%"
       id="text5590"
       y="553.31433"
       x="3309.0264"
       style="font-style:normal;font-weight:normal;font-size:55.50901794px;line-height:125%;font-family:sans-serif;letter-spacing:0px;word-spacing:0px;fill:#000000;fill-opacity:1;stroke:none;stroke-width:1px;stroke-linecap:butt;stroke-linejoin:miter;stroke-opacity:1"
       xml:space="preserve"><tspan
         y="553.31433"
         x="3309.0264"
         id="tspan5592"
         sodipodi:role="line">1</tspan></text>
    <text
       xml:space="preserve"
       style="font-style:normal;font-weight:normal;font-size:55.50901794px;line-height:125%;font-family:sans-serif;letter-spacing:0px;word-spacing:0px;fill:#000000;fill-opacity:1;stroke:none;stroke-width:1px;stroke-linecap:butt;stroke-linejoin:miter;stroke-opacity:1"
       x="3309.0264"
       y="971.98041"
       id="text5594"
       sodipodi:linespacing="125%"><tspan
         sodipodi:role="line"
         id="tspan5596"
         x="3309.0264"
         y="971.98041">1</tspan></text>
    <text
       sodipodi:linespacing="125%"
       id="text5598"
       y="1291.5928"
       x="3072.6101"
       style="font-style:normal;font-weight:normal;font-size:55.50901794px;line-height:125%;font-family:sans-serif;letter-spacing:0px;word-spacing:0px;fill:#000000;fill-opacity:1;stroke:none;stroke-width:1px;stroke-linecap:butt;stroke-linejoin:miter;stroke-opacity:1"
       xml:space="preserve"><tspan
         y="1291.5928"
         x="3072.6101"
         id="tspan5600"
         sodipodi:role="line">2</tspan></text>
    <text
       xml:space="preserve"
       style="font-style:normal;font-weight:normal;font-size:118.40328217px;line-height:125%;font-family:sans-serif;letter-spacing:0px;word-spacing:0px;fill:#000000;fill-opacity:1;stroke:none;stroke-width:1px;stroke-linecap:butt;stroke-linejoin:miter;stroke-opacity:1"
       x="2639.3684"
       y="162.21161"
       id="text4235"
       sodipodi:linespacing="125%"><tspan
         sodipodi:role="line"
         id="tspan4237"
         x="2639.3684"
         y="162.21161">+</tspan></text>
    <text
       sodipodi:linespacing="125%"
       id="text4239"
       y="580.81885"
       x="2639.3684"
       style="font-style:normal;font-weight:normal;font-size:118.40328217px;line-height:125%;font-family:sans-serif;letter-spacing:0px;word-spacing:0px;fill:#000000;fill-opacity:1;stroke:none;stroke-width:1px;stroke-linecap:butt;stroke-linejoin:miter;stroke-opacity:1"
       xml:space="preserve"><tspan
         y="580.81885"
         x="2639.3684"
         id="tspan4241"
         sodipodi:role="line">+</tspan></text>
    <text
       xml:space="preserve"
       style="font-style:normal;font-weight:normal;font-size:118.40328217px;line-height:125%;font-family:sans-serif;letter-spacing:0px;word-spacing:0px;fill:#000000;fill-opacity:1;stroke:none;stroke-width:1px;stroke-linecap:butt;stroke-linejoin:miter;stroke-opacity:1"
       x="2639.3684"
       y="990.9408"
       id="text4243"
       sodipodi:linespacing="125%"><tspan
         sodipodi:role="line"
         id="tspan4245"
         x="2639.3684"
         y="990.9408">+</tspan></text>
    <text
       xml:space="preserve"
       style="font-style:normal;font-weight:normal;font-size:61.82690811px;line-height:125%;font-family:sans-serif;letter-spacing:0px;word-spacing:0px;fill:#000000;fill-opacity:1;stroke:none;stroke-width:1px;stroke-linecap:butt;stroke-linejoin:miter;stroke-opacity:1"
       x="2052.9429"
       y="1452.2831"
       id="text4251"
       sodipodi:linespacing="125%"><tspan
         sodipodi:role="line"
         id="tspan4253"
         x="2052.9429"
         y="1452.2831">W=2<tspan
   style="font-size:65%;baseline-shift:super"
   id="tspan4850">2</tspan></tspan></text>
    <text
       sodipodi:linespacing="125%"
       id="text4255"
       y="1452.2831"
       x="2282.5308"
       style="font-style:normal;font-weight:normal;font-size:61.82690811px;line-height:125%;font-family:sans-serif;letter-spacing:0px;word-spacing:0px;fill:#000000;fill-opacity:1;stroke:none;stroke-width:1px;stroke-linecap:butt;stroke-linejoin:miter;stroke-opacity:1"
       xml:space="preserve"><tspan
         y="1452.2831"
         x="2282.5308"
         id="tspan4257"
         sodipodi:role="line">W=2<tspan
   style="font-size:65%;baseline-shift:super"
   id="tspan4848">1</tspan></tspan></text>
    <text
       xml:space="preserve"
       style="font-style:normal;font-weight:normal;font-size:61.82690811px;line-height:125%;font-family:sans-serif;letter-spacing:0px;word-spacing:0px;fill:#000000;fill-opacity:1;stroke:none;stroke-width:1px;stroke-linecap:butt;stroke-linejoin:miter;stroke-opacity:1"
       x="2488.5208"
       y="1452.2831"
       id="text4259"
       sodipodi:linespacing="125%"><tspan
         sodipodi:role="line"
         id="tspan4261"
         x="2488.5208"
         y="1452.2831">W=2<tspan
   style="font-size:65%;baseline-shift:super"
   id="tspan4846">0</tspan></tspan></text>
    <text
       xml:space="preserve"
       style="font-style:normal;font-weight:normal;font-size:61.82690811px;line-height:125%;font-family:sans-serif;letter-spacing:0px;word-spacing:0px;fill:#000000;fill-opacity:1;stroke:none;stroke-width:1px;stroke-linecap:butt;stroke-linejoin:miter;stroke-opacity:1"
       x="2268.5308"
       y="1087.416"
       id="text4263"
       sodipodi:linespacing="125%"><tspan
         sodipodi:role="line"
         id="tspan4265"
         x="2268.5308"
         y="1087.416">W=2<tspan
   style="font-size:65%;baseline-shift:super"
   id="tspan4844">1</tspan></tspan></text>
    <text
       sodipodi:linespacing="125%"
       id="text4267"
       y="1087.416"
       x="2474.5208"
       style="font-style:normal;font-weight:normal;font-size:61.82690811px;line-height:125%;font-family:sans-serif;letter-spacing:0px;word-spacing:0px;fill:#000000;fill-opacity:1;stroke:none;stroke-width:1px;stroke-linecap:butt;stroke-linejoin:miter;stroke-opacity:1"
       xml:space="preserve"><tspan
         y="1087.416"
         x="2474.5208"
         id="tspan4269"
         sodipodi:role="line">W=2<tspan
   style="font-size:65%;baseline-shift:super"
   id="tspan4842">0</tspan></tspan></text>
    <text
       sodipodi:linespacing="125%"
       id="text4279"
       y="665.98035"
       x="2272.5308"
       style="font-style:normal;font-weight:normal;font-size:61.82690811px;line-height:125%;font-family:sans-serif;letter-spacing:0px;word-spacing:0px;fill:#000000;fill-opacity:1;stroke:none;stroke-width:1px;stroke-linecap:butt;stroke-linejoin:miter;stroke-opacity:1"
       xml:space="preserve"><tspan
         y="665.98035"
         x="2272.5308"
         id="tspan4281"
         sodipodi:role="line">W=2<tspan
   style="font-size:65%;baseline-shift:super"
   id="tspan4840">1</tspan></tspan></text>
    <text
       xml:space="preserve"
       style="font-style:normal;font-weight:normal;font-size:61.82690811px;line-height:125%;font-family:sans-serif;letter-spacing:0px;word-spacing:0px;fill:#000000;fill-opacity:1;stroke:none;stroke-width:1px;stroke-linecap:butt;stroke-linejoin:miter;stroke-opacity:1"
       x="2478.5208"
       y="665.98035"
       id="text4283"
       sodipodi:linespacing="125%"><tspan
         sodipodi:role="line"
         id="tspan4285"
         x="2478.5208"
         y="665.98035">W=2<tspan
   style="font-size:65%;baseline-shift:super"
   id="tspan4838">0</tspan></tspan></text>
    <text
       sodipodi:linespacing="125%"
       id="text4291"
       y="250.20155"
       x="2466.5208"
       style="font-style:normal;font-weight:normal;font-size:61.82690811px;line-height:125%;font-family:sans-serif;letter-spacing:0px;word-spacing:0px;fill:#000000;fill-opacity:1;stroke:none;stroke-width:1px;stroke-linecap:butt;stroke-linejoin:miter;stroke-opacity:1"
       xml:space="preserve"><tspan
         y="250.20155"
         x="2466.5208"
         id="tspan4293"
         sodipodi:role="line">W=2<tspan
   style="font-size:65%;baseline-shift:super"
   id="tspan4836">0</tspan></tspan></text>
  </g>
</svg>
