<?xml version="1.0" encoding="UTF-8" standalone="no"?>
<!-- Created with Inkscape (http://www.inkscape.org/) -->

<svg
   xmlns:dc="http://purl.org/dc/elements/1.1/"
   xmlns:cc="http://creativecommons.org/ns#"
   xmlns:rdf="http://www.w3.org/1999/02/22-rdf-syntax-ns#"
   xmlns:svg="http://www.w3.org/2000/svg"
   xmlns="http://www.w3.org/2000/svg"
   xmlns:sodipodi="http://sodipodi.sourceforge.net/DTD/sodipodi-0.dtd"
   xmlns:inkscape="http://www.inkscape.org/namespaces/inkscape"
   width="210mm"
   height="297mm"
   viewBox="0 0 744.09448819 1052.3622047"
   id="svg2"
   version="1.1"
   inkscape:version="0.91 r13725"
   sodipodi:docname="conc-right-leaning.svg"
   inkscape:export-filename="C:\cygwin\home\axel22\workspaces\scala\progfun-slides\images\conc-right-leaning.png"
   inkscape:export-xdpi="55.77"
   inkscape:export-ydpi="55.77">
  <defs
     id="defs4" />
  <sodipodi:namedview
     id="base"
     pagecolor="#ffffff"
     bordercolor="#666666"
     borderopacity="1.0"
     inkscape:pageopacity="0.0"
     inkscape:pageshadow="2"
     inkscape:zoom="0.25"
     inkscape:cx="576.1997"
     inkscape:cy="429.42201"
     inkscape:document-units="px"
     inkscape:current-layer="layer1"
     showgrid="false"
     inkscape:window-width="1600"
     inkscape:window-height="877"
     inkscape:window-x="-4"
     inkscape:window-y="-4"
     inkscape:window-maximized="1" />
  <metadata
     id="metadata7">
    <rdf:RDF>
      <cc:Work
         rdf:about="">
        <dc:format>image/svg+xml</dc:format>
        <dc:type
           rdf:resource="http://purl.org/dc/dcmitype/StillImage" />
        <dc:title />
      </cc:Work>
    </rdf:RDF>
  </metadata>
  <g
     inkscape:label="Layer 1"
     inkscape:groupmode="layer"
     id="layer1">
    <rect
       transform="matrix(0.70710678,-0.70710678,0.70710678,0.70710678,0,0)"
       y="81.875366"
       x="-449.68457"
       height="76"
       width="76"
       id="rect4436"
       style="fill:none;fill-opacity:1;stroke:#000000;stroke-width:5;stroke-miterlimit:4;stroke-dasharray:none;stroke-dashoffset:0;stroke-opacity:1" />
    <rect
       style="fill:none;fill-opacity:1;stroke:#000000;stroke-width:5;stroke-miterlimit:4;stroke-dasharray:none;stroke-dashoffset:0;stroke-opacity:1"
       id="rect4438"
       width="76"
       height="76"
       x="-131.50089"
       y="409.57394"
       transform="matrix(0.70710678,-0.70710678,0.70710678,0.70710678,0,0)" />
    <path
       style="fill:none;fill-rule:evenodd;stroke:#000000;stroke-width:5;stroke-linecap:butt;stroke-linejoin:miter;stroke-miterlimit:4;stroke-dasharray:none;stroke-opacity:1"
       d="m -227.78715,410.36221 -134.00001,317.99999 318.000003,0 -144.000003,-315.99999"
       id="path4440"
       inkscape:connector-curvature="0" />
    <text
       xml:space="preserve"
       style="font-style:normal;font-weight:normal;font-size:53.60011292px;line-height:125%;font-family:sans-serif;letter-spacing:0px;word-spacing:0px;fill:#000000;fill-opacity:1;stroke:none;stroke-width:1px;stroke-linecap:butt;stroke-linejoin:miter;stroke-opacity:1"
       x="-248.49254"
       y="295.56558"
       id="text4452"
       sodipodi:linespacing="125%"
       transform="scale(0.97752158,1.0229953)"><tspan
         sodipodi:role="line"
         id="tspan4454"
         x="-248.49254"
         y="295.56558">d-2</tspan></text>
    <text
       sodipodi:linespacing="125%"
       id="text4456"
       y="294.15521"
       x="225.33463"
       style="font-style:normal;font-weight:normal;font-size:52.43187332px;line-height:125%;font-family:sans-serif;letter-spacing:0px;word-spacing:0px;fill:#000000;fill-opacity:1;stroke:none;stroke-width:1px;stroke-linecap:butt;stroke-linejoin:miter;stroke-opacity:1"
       xml:space="preserve"
       transform="scale(0.97285707,1.0279002)"><tspan
         y="294.15521"
         x="225.33463"
         id="tspan4458"
         sodipodi:role="line">d-1</tspan></text>
    <rect
       style="fill:none;fill-opacity:1;stroke:#000000;stroke-width:5;stroke-miterlimit:4;stroke-dasharray:none;stroke-dashoffset:0;stroke-opacity:1"
       id="rect4470"
       width="76"
       height="76"
       x="-219.60011"
       y="170.53856"
       transform="matrix(0.70710678,-0.70710678,0.70710678,0.70710678,0,0)" />
    <path
       style="fill:none;fill-rule:evenodd;stroke:#000000;stroke-width:5;stroke-linecap:butt;stroke-linejoin:miter;stroke-miterlimit:4;stroke-dasharray:none;stroke-dashoffset:0;stroke-opacity:1"
       d="M 44.619243,301.83132 221.34344,357.74785"
       id="path4472"
       inkscape:connector-curvature="0"
       sodipodi:nodetypes="cc" />
    <path
       sodipodi:nodetypes="cc"
       inkscape:connector-curvature="0"
       id="path4474"
       d="M -3.630757,304.08132 -175.90656,349.99785"
       style="fill:none;fill-rule:evenodd;stroke:#000000;stroke-width:5;stroke-linecap:butt;stroke-linejoin:miter;stroke-miterlimit:4;stroke-dasharray:none;stroke-dashoffset:0;stroke-opacity:1" />
    <text
       sodipodi:linespacing="125%"
       id="text4476"
       y="204.63158"
       x="-19.087704"
       style="font-style:normal;font-weight:normal;font-size:53.07033157px;line-height:125%;font-family:sans-serif;letter-spacing:0px;word-spacing:0px;fill:#000000;fill-opacity:1;stroke:none;stroke-width:1px;stroke-linecap:butt;stroke-linejoin:miter;stroke-opacity:1"
       xml:space="preserve"
       transform="scale(0.99161364,1.0084573)"><tspan
         y="204.63158"
         x="-19.087704"
         id="tspan4478"
         sodipodi:role="line">d</tspan></text>
    <rect
       transform="matrix(0.70710678,-0.70710678,0.70710678,0.70710678,0,0)"
       y="864.72913"
       x="323.65338"
       height="76"
       width="76"
       id="rect4480"
       style="fill:none;fill-opacity:1;stroke:#000000;stroke-width:5;stroke-miterlimit:4;stroke-dasharray:none;stroke-dashoffset:0;stroke-opacity:1" />
    <path
       style="fill:none;fill-rule:evenodd;stroke:#000000;stroke-width:5;stroke-linecap:butt;stroke-linejoin:miter;stroke-miterlimit:4;stroke-dasharray:none;stroke-opacity:1"
       d="m 873.89822,412.36221 -133.99996,317.99999 318.00004,0 -144.00008,-315.99999"
       id="path4482"
       inkscape:connector-curvature="0" />
    <text
       xml:space="preserve"
       style="font-style:normal;font-weight:normal;font-size:54.6017952px;line-height:125%;font-family:sans-serif;letter-spacing:0px;word-spacing:0px;fill:#000000;fill-opacity:1;stroke:none;stroke-width:1px;stroke-linecap:butt;stroke-linejoin:miter;stroke-opacity:1"
       x="786.19965"
       y="306.32898"
       id="text4484"
       sodipodi:linespacing="125%"
       transform="scale(1.0131192,0.98705068)"><tspan
         sodipodi:role="line"
         id="tspan4486"
         x="786.19965"
         y="306.32898">e &lt;= d-2</tspan></text>
    <text
       xml:space="preserve"
       style="font-style:normal;font-weight:normal;font-size:60.38670349px;line-height:125%;font-family:sans-serif;letter-spacing:0px;word-spacing:0px;fill:#000000;fill-opacity:1;stroke:none;stroke-width:1px;stroke-linecap:butt;stroke-linejoin:miter;stroke-opacity:1"
       x="-301.75351"
       y="702.54803"
       id="text4488"
       sodipodi:linespacing="125%"><tspan
         sodipodi:role="line"
         id="tspan4490"
         x="-301.75351"
         y="702.54803">xs.left</tspan></text>
    <text
       sodipodi:linespacing="125%"
       id="text4492"
       y="588.54803"
       x="116.91257"
       style="font-style:normal;font-weight:normal;font-size:60.38670349px;line-height:125%;font-family:sans-serif;letter-spacing:0px;word-spacing:0px;fill:#000000;fill-opacity:1;stroke:none;stroke-width:1px;stroke-linecap:butt;stroke-linejoin:miter;stroke-opacity:1"
       xml:space="preserve"><tspan
         y="588.54803"
         x="116.91257"
         id="tspan4494"
         sodipodi:role="line">xs.right</tspan></text>
    <text
       xml:space="preserve"
       style="font-style:normal;font-weight:normal;font-size:60.38670349px;line-height:125%;font-family:sans-serif;letter-spacing:0px;word-spacing:0px;fill:#000000;fill-opacity:1;stroke:none;stroke-width:1px;stroke-linecap:butt;stroke-linejoin:miter;stroke-opacity:1"
       x="866.62238"
       y="702.54803"
       id="text4496"
       sodipodi:linespacing="125%"><tspan
         sodipodi:role="line"
         x="866.62238"
         y="702.54803"
         id="tspan4500">ys</tspan></text>
    <text
       xml:space="preserve"
       style="font-style:normal;font-weight:normal;font-size:133.4460907px;line-height:125%;font-family:sans-serif;letter-spacing:0px;word-spacing:0px;fill:#000000;fill-opacity:1;stroke:none;stroke-width:1px;stroke-linecap:butt;stroke-linejoin:miter;stroke-opacity:1"
       x="771.9082"
       y="423.71152"
       id="text4585"
       sodipodi:linespacing="125%"
       transform="scale(0.70385544,1.4207463)"><tspan
         sodipodi:role="line"
         id="tspan4587"
         x="771.9082"
         y="423.71152">&lt;&gt;</tspan></text>
    <rect
       style="fill:none;fill-opacity:1;stroke:#000000;stroke-width:5;stroke-miterlimit:4;stroke-dasharray:none;stroke-dashoffset:0;stroke-opacity:1"
       id="rect4619"
       width="76"
       height="76"
       x="-487.86832"
       y="442.49985"
       transform="matrix(0.70710678,-0.70710678,0.70710678,0.70710678,0,0)" />
    <rect
       transform="matrix(0.70710678,-0.70710678,0.70710678,0.70710678,0,0)"
       y="736.25726"
       x="-203.62579"
       height="76"
       width="76"
       id="rect4621"
       style="fill:none;fill-opacity:1;stroke:#000000;stroke-width:5;stroke-miterlimit:4;stroke-dasharray:none;stroke-dashoffset:0;stroke-opacity:1" />
    <path
       inkscape:connector-curvature="0"
       id="path4623"
       d="m 0.21285,692.36221 -134.00001,317.99999 318,0 -144,-315.99999"
       style="fill:none;fill-rule:evenodd;stroke:#000000;stroke-width:5;stroke-linecap:butt;stroke-linejoin:miter;stroke-miterlimit:4;stroke-dasharray:none;stroke-opacity:1" />
    <path
       style="fill:none;fill-rule:evenodd;stroke:#000000;stroke-width:5;stroke-linecap:butt;stroke-linejoin:miter;stroke-miterlimit:4;stroke-dasharray:none;stroke-opacity:1"
       d="m 410.21284,694.36221 -134,317.99999 318,0 -144,-315.99999"
       id="path4625"
       inkscape:connector-curvature="0" />
    <text
       transform="scale(0.97752159,1.0229953)"
       sodipodi:linespacing="125%"
       id="text4627"
       y="1052.1674"
       x="-15.249606"
       style="font-style:normal;font-weight:normal;font-size:53.60011292px;line-height:125%;font-family:sans-serif;letter-spacing:0px;word-spacing:0px;fill:#000000;fill-opacity:1;stroke:none;stroke-width:1px;stroke-linecap:butt;stroke-linejoin:miter;stroke-opacity:1"
       xml:space="preserve"><tspan
         y="1052.1674"
         x="-15.249606"
         id="tspan4629"
         sodipodi:role="line">d-2</tspan></text>
    <text
       transform="scale(0.97285709,1.0279002)"
       xml:space="preserve"
       style="font-style:normal;font-weight:normal;font-size:52.43187332px;line-height:125%;font-family:sans-serif;letter-spacing:0px;word-spacing:0px;fill:#000000;fill-opacity:1;stroke:none;stroke-width:1px;stroke-linecap:butt;stroke-linejoin:miter;stroke-opacity:1"
       x="410.35666"
       y="1047.1466"
       id="text4631"
       sodipodi:linespacing="125%"><tspan
         sodipodi:role="line"
         id="tspan4633"
         x="410.35666"
         y="1047.1466">d-2</tspan></text>
    <path
       sodipodi:nodetypes="cc"
       inkscape:connector-curvature="0"
       id="path4635"
       d="m 274.61924,413.83132 130.7242,225.91653"
       style="fill:none;fill-rule:evenodd;stroke:#000000;stroke-width:5;stroke-linecap:butt;stroke-linejoin:miter;stroke-miterlimit:4;stroke-dasharray:none;stroke-dashoffset:0;stroke-opacity:1" />
    <path
       style="fill:none;fill-rule:evenodd;stroke:#000000;stroke-width:5;stroke-linecap:butt;stroke-linejoin:miter;stroke-miterlimit:4;stroke-dasharray:none;stroke-dashoffset:0;stroke-opacity:1"
       d="M 226.36924,410.08132 50.09344,631.99785"
       id="path4637"
       inkscape:connector-curvature="0"
       sodipodi:nodetypes="cc" />
    <text
       sodipodi:linespacing="125%"
       id="text4639"
       y="994.30743"
       x="-95.220245"
       style="font-style:normal;font-weight:normal;font-size:42.18483353px;line-height:125%;font-family:sans-serif;letter-spacing:0px;word-spacing:0px;fill:#000000;fill-opacity:1;stroke:none;stroke-width:1px;stroke-linecap:butt;stroke-linejoin:miter;stroke-opacity:1"
       xml:space="preserve"><tspan
         y="994.30743"
         x="-95.220245"
         id="tspan4641"
         sodipodi:role="line">xs.right.left</tspan></text>
    <text
       xml:space="preserve"
       style="font-style:normal;font-weight:normal;font-size:42.18483353px;line-height:125%;font-family:sans-serif;letter-spacing:0px;word-spacing:0px;fill:#000000;fill-opacity:1;stroke:none;stroke-width:1px;stroke-linecap:butt;stroke-linejoin:miter;stroke-opacity:1"
       x="295.76825"
       y="996.71881"
       id="text4643"
       sodipodi:linespacing="125%"><tspan
         sodipodi:role="line"
         id="tspan4645"
         x="295.76825"
         y="996.71881">xs.right.right</tspan></text>
    <text
       xml:space="preserve"
       style="font-style:normal;font-weight:normal;font-size:53.60011292px;line-height:125%;font-family:sans-serif;letter-spacing:0px;word-spacing:0px;fill:#000000;fill-opacity:1;stroke:none;stroke-width:1px;stroke-linecap:butt;stroke-linejoin:miter;stroke-opacity:1"
       x="-15.249606"
       y="1146.0094"
       id="text4651"
       sodipodi:linespacing="125%"
       transform="scale(0.97752159,1.0229953)"><tspan
         sodipodi:role="line"
         id="tspan4653"
         x="-15.249606"
         y="1146.0094">d-2</tspan></text>
    <text
       sodipodi:linespacing="125%"
       id="text4655"
       y="1140.5409"
       x="410.35666"
       style="font-style:normal;font-weight:normal;font-size:52.43187332px;line-height:125%;font-family:sans-serif;letter-spacing:0px;word-spacing:0px;fill:#000000;fill-opacity:1;stroke:none;stroke-width:1px;stroke-linecap:butt;stroke-linejoin:miter;stroke-opacity:1"
       xml:space="preserve"
       transform="scale(0.97285709,1.0279002)"><tspan
         y="1140.5409"
         x="410.35666"
         id="tspan4657"
         sodipodi:role="line">d-3</tspan></text>
    <text
       transform="scale(0.97752159,1.0229953)"
       sodipodi:linespacing="125%"
       id="text4659"
       y="1099.0884"
       x="-15.249606"
       style="font-style:normal;font-weight:normal;font-size:53.60011292px;line-height:125%;font-family:sans-serif;letter-spacing:0px;word-spacing:0px;fill:#000000;fill-opacity:1;stroke:none;stroke-width:1px;stroke-linecap:butt;stroke-linejoin:miter;stroke-opacity:1"
       xml:space="preserve"><tspan
         y="1099.0884"
         x="-15.249606"
         id="tspan4661"
         sodipodi:role="line">d-3</tspan></text>
    <text
       transform="scale(0.97285709,1.0279002)"
       xml:space="preserve"
       style="font-style:normal;font-weight:normal;font-size:52.43187332px;line-height:125%;font-family:sans-serif;letter-spacing:0px;word-spacing:0px;fill:#000000;fill-opacity:1;stroke:none;stroke-width:1px;stroke-linecap:butt;stroke-linejoin:miter;stroke-opacity:1"
       x="410.35666"
       y="1093.8438"
       id="text4663"
       sodipodi:linespacing="125%"><tspan
         sodipodi:role="line"
         id="tspan4665"
         x="410.35666"
         y="1093.8438">d-2</tspan></text>
    <text
       transform="scale(0.70385544,1.4207463)"
       sodipodi:linespacing="125%"
       id="text4667"
       y="423.71152"
       x="1565.5629"
       style="font-style:normal;font-weight:normal;font-size:133.4460907px;line-height:125%;font-family:sans-serif;letter-spacing:0px;word-spacing:0px;fill:#000000;fill-opacity:1;stroke:none;stroke-width:1px;stroke-linecap:butt;stroke-linejoin:miter;stroke-opacity:1"
       xml:space="preserve"><tspan
         y="423.71152"
         x="1565.5629"
         id="tspan4669"
         sodipodi:role="line">==</tspan></text>
    <rect
       style="fill:none;fill-opacity:1;stroke:#000000;stroke-width:5;stroke-miterlimit:4;stroke-dasharray:none;stroke-dashoffset:0;stroke-opacity:1"
       id="rect4671"
       width="76"
       height="76"
       x="1412.6208"
       y="1949.8049"
       transform="matrix(0.70710678,-0.70710678,0.70710678,0.70710678,0,0)" />
    <path
       inkscape:connector-curvature="0"
       id="path4673"
       d="m 2411.1798,409.61704 -133.9999,317.99999 318,0 -144.0001,-315.99999"
       style="fill:none;fill-rule:evenodd;stroke:#000000;stroke-width:5;stroke-linecap:butt;stroke-linejoin:miter;stroke-miterlimit:4;stroke-dasharray:none;stroke-opacity:1" />
    <text
       transform="scale(1.0131192,0.98705068)"
       sodipodi:linespacing="125%"
       id="text4675"
       y="793.55414"
       x="2261.6953"
       style="font-style:normal;font-weight:normal;font-size:54.6017952px;line-height:125%;font-family:sans-serif;letter-spacing:0px;word-spacing:0px;fill:#000000;fill-opacity:1;stroke:none;stroke-width:1px;stroke-linecap:butt;stroke-linejoin:miter;stroke-opacity:1"
       xml:space="preserve"><tspan
         y="793.55414"
         x="2261.6953"
         id="tspan4677"
         sodipodi:role="line">e &lt;= d-2</tspan></text>
    <text
       sodipodi:linespacing="125%"
       id="text4679"
       y="699.80286"
       x="2403.9041"
       style="font-style:normal;font-weight:normal;font-size:60.38670349px;line-height:125%;font-family:sans-serif;letter-spacing:0px;word-spacing:0px;fill:#000000;fill-opacity:1;stroke:none;stroke-width:1px;stroke-linecap:butt;stroke-linejoin:miter;stroke-opacity:1"
       xml:space="preserve"><tspan
         id="tspan4681"
         y="699.80286"
         x="2403.9041"
         sodipodi:role="line">ys</tspan></text>
    <text
       transform="scale(0.70385544,1.4207463)"
       sodipodi:linespacing="125%"
       id="text4683"
       y="283.24768"
       x="3119.9368"
       style="font-style:normal;font-weight:normal;font-size:133.4460907px;line-height:125%;font-family:sans-serif;letter-spacing:0px;word-spacing:0px;fill:#000000;fill-opacity:1;stroke:none;stroke-width:1px;stroke-linecap:butt;stroke-linejoin:miter;stroke-opacity:1"
       xml:space="preserve"><tspan
         y="283.24768"
         x="3119.9368"
         id="tspan4685"
         sodipodi:role="line">&lt;&gt;</tspan></text>
    <rect
       style="fill:none;fill-opacity:1;stroke:#000000;stroke-width:5;stroke-miterlimit:4;stroke-dasharray:none;stroke-dashoffset:0;stroke-opacity:1"
       id="rect4687"
       width="76"
       height="76"
       x="1179.2655"
       y="1716.9231"
       transform="matrix(0.70710678,-0.70710678,0.70710678,0.70710678,0,0)" />
    <path
       inkscape:connector-curvature="0"
       id="path4689"
       d="m 2081.4945,409.9459 -134,317.99999 318,0 -144,-315.99999"
       style="fill:none;fill-rule:evenodd;stroke:#000000;stroke-width:5;stroke-linecap:butt;stroke-linejoin:miter;stroke-miterlimit:4;stroke-dasharray:none;stroke-opacity:1" />
    <text
       sodipodi:linespacing="125%"
       id="text4691"
       y="770.45026"
       x="2128.2522"
       style="font-style:normal;font-weight:normal;font-size:52.43187332px;line-height:125%;font-family:sans-serif;letter-spacing:0px;word-spacing:0px;fill:#000000;fill-opacity:1;stroke:none;stroke-width:1px;stroke-linecap:butt;stroke-linejoin:miter;stroke-opacity:1"
       xml:space="preserve"
       transform="scale(0.97285709,1.0279002)"><tspan
         y="770.45026"
         x="2128.2522"
         id="tspan4693"
         sodipodi:role="line">d-2</tspan></text>
    <text
       sodipodi:linespacing="125%"
       id="text4695"
       y="712.30249"
       x="1967.05"
       style="font-style:normal;font-weight:normal;font-size:42.18483353px;line-height:125%;font-family:sans-serif;letter-spacing:0px;word-spacing:0px;fill:#000000;fill-opacity:1;stroke:none;stroke-width:1px;stroke-linecap:butt;stroke-linejoin:miter;stroke-opacity:1"
       xml:space="preserve"><tspan
         y="712.30249"
         x="1967.05"
         id="tspan4697"
         sodipodi:role="line">xs.right.right</tspan></text>
    <text
       transform="scale(0.97285709,1.0279002)"
       xml:space="preserve"
       style="font-style:normal;font-weight:normal;font-size:52.43187332px;line-height:125%;font-family:sans-serif;letter-spacing:0px;word-spacing:0px;fill:#000000;fill-opacity:1;stroke:none;stroke-width:1px;stroke-linecap:butt;stroke-linejoin:miter;stroke-opacity:1"
       x="2128.2522"
       y="863.84454"
       id="text4699"
       sodipodi:linespacing="125%"><tspan
         sodipodi:role="line"
         id="tspan4701"
         x="2128.2522"
         y="863.84454">d-3</tspan></text>
    <text
       sodipodi:linespacing="125%"
       id="text4703"
       y="817.1474"
       x="2128.2522"
       style="font-style:normal;font-weight:normal;font-size:52.43187332px;line-height:125%;font-family:sans-serif;letter-spacing:0px;word-spacing:0px;fill:#000000;fill-opacity:1;stroke:none;stroke-width:1px;stroke-linecap:butt;stroke-linejoin:miter;stroke-opacity:1"
       xml:space="preserve"
       transform="scale(0.97285709,1.0279002)"><tspan
         y="817.1474"
         x="2128.2522"
         id="tspan4705"
         sodipodi:role="line">d-2</tspan></text>
    <text
       xml:space="preserve"
       style="font-style:normal;font-weight:normal;font-size:54.6017952px;line-height:125%;font-family:sans-serif;letter-spacing:0px;word-spacing:0px;fill:#000000;fill-opacity:1;stroke:none;stroke-width:1px;stroke-linecap:butt;stroke-linejoin:miter;stroke-opacity:1"
       x="2111.9302"
       y="162.66971"
       id="text5306"
       sodipodi:linespacing="125%"
       transform="scale(1.0131192,0.98705068)"><tspan
         sodipodi:role="line"
         id="tspan5308"
         x="2111.9302"
         y="162.66971">e' == d-1</tspan></text>
    <rect
       style="fill:none;fill-opacity:1;stroke:#000000;stroke-width:5;stroke-miterlimit:4;stroke-dasharray:none;stroke-dashoffset:0;stroke-opacity:1"
       id="rect5310"
       width="76"
       height="76"
       x="702.59485"
       y="1234.1548"
       transform="matrix(0.70710678,-0.70710678,0.70710678,0.70710678,0,0)" />
    <path
       inkscape:connector-curvature="0"
       id="path5312"
       d="m 1401.7788,410.36221 -134,317.99999 318,0 -144,-315.99999"
       style="fill:none;fill-rule:evenodd;stroke:#000000;stroke-width:5;stroke-linecap:butt;stroke-linejoin:miter;stroke-miterlimit:4;stroke-dasharray:none;stroke-opacity:1" />
    <text
       transform="scale(0.97752159,1.0229953)"
       sodipodi:linespacing="125%"
       id="text5314"
       y="764.77594"
       x="1418.5435"
       style="font-style:normal;font-weight:normal;font-size:53.60011292px;line-height:125%;font-family:sans-serif;letter-spacing:0px;word-spacing:0px;fill:#000000;fill-opacity:1;stroke:none;stroke-width:1px;stroke-linecap:butt;stroke-linejoin:miter;stroke-opacity:1"
       xml:space="preserve"><tspan
         y="764.77594"
         x="1418.5435"
         id="tspan5316"
         sodipodi:role="line">d-2</tspan></text>
    <text
       sodipodi:linespacing="125%"
       id="text5320"
       y="702.54803"
       x="1327.8124"
       style="font-style:normal;font-weight:normal;font-size:60.38670349px;line-height:125%;font-family:sans-serif;letter-spacing:0px;word-spacing:0px;fill:#000000;fill-opacity:1;stroke:none;stroke-width:1px;stroke-linecap:butt;stroke-linejoin:miter;stroke-opacity:1"
       xml:space="preserve"><tspan
         y="702.54803"
         x="1327.8124"
         id="tspan5322"
         sodipodi:role="line">xs.left</tspan></text>
    <rect
       transform="matrix(0.70710678,-0.70710678,0.70710678,0.70710678,0,0)"
       y="1477.4001"
       x="945.84003"
       height="76"
       width="76"
       id="rect5324"
       style="fill:none;fill-opacity:1;stroke:#000000;stroke-width:5;stroke-miterlimit:4;stroke-dasharray:none;stroke-dashoffset:0;stroke-opacity:1" />
    <path
       style="fill:none;fill-rule:evenodd;stroke:#000000;stroke-width:5;stroke-linecap:butt;stroke-linejoin:miter;stroke-miterlimit:4;stroke-dasharray:none;stroke-opacity:1"
       d="m 1745.7788,410.36221 -134,317.99999 318,0 -144,-315.99999"
       id="path5326"
       inkscape:connector-curvature="0" />
    <text
       xml:space="preserve"
       style="font-style:normal;font-weight:normal;font-size:53.60011292px;line-height:125%;font-family:sans-serif;letter-spacing:0px;word-spacing:0px;fill:#000000;fill-opacity:1;stroke:none;stroke-width:1px;stroke-linecap:butt;stroke-linejoin:miter;stroke-opacity:1"
       x="1770.4534"
       y="776.50623"
       id="text5328"
       sodipodi:linespacing="125%"
       transform="scale(0.97752159,1.0229953)"><tspan
         sodipodi:role="line"
         id="tspan5330"
         x="1770.4534"
         y="776.50623">d-2</tspan></text>
    <text
       xml:space="preserve"
       style="font-style:normal;font-weight:normal;font-size:42.18483353px;line-height:125%;font-family:sans-serif;letter-spacing:0px;word-spacing:0px;fill:#000000;fill-opacity:1;stroke:none;stroke-width:1px;stroke-linecap:butt;stroke-linejoin:miter;stroke-opacity:1"
       x="1650.3457"
       y="712.30743"
       id="text5332"
       sodipodi:linespacing="125%"><tspan
         sodipodi:role="line"
         id="tspan5334"
         x="1650.3457"
         y="712.30743">xs.right.left</tspan></text>
    <text
       transform="scale(0.97752159,1.0229953)"
       sodipodi:linespacing="125%"
       id="text5336"
       y="870.34827"
       x="1770.4534"
       style="font-style:normal;font-weight:normal;font-size:53.60011292px;line-height:125%;font-family:sans-serif;letter-spacing:0px;word-spacing:0px;fill:#000000;fill-opacity:1;stroke:none;stroke-width:1px;stroke-linecap:butt;stroke-linejoin:miter;stroke-opacity:1"
       xml:space="preserve"><tspan
         y="870.34827"
         x="1770.4534"
         id="tspan5338"
         sodipodi:role="line">d-2</tspan></text>
    <text
       xml:space="preserve"
       style="font-style:normal;font-weight:normal;font-size:53.60011292px;line-height:125%;font-family:sans-serif;letter-spacing:0px;word-spacing:0px;fill:#000000;fill-opacity:1;stroke:none;stroke-width:1px;stroke-linecap:butt;stroke-linejoin:miter;stroke-opacity:1"
       x="1770.4534"
       y="823.42725"
       id="text5340"
       sodipodi:linespacing="125%"
       transform="scale(0.97752159,1.0229953)"><tspan
         sodipodi:role="line"
         id="tspan5342"
         x="1770.4534"
         y="823.42725">d-3</tspan></text>
    <text
       transform="scale(1.0131192,0.98705068)"
       sodipodi:linespacing="125%"
       id="text5344"
       y="217.37814"
       x="2111.9302"
       style="font-style:normal;font-weight:normal;font-size:54.6017952px;line-height:125%;font-family:sans-serif;letter-spacing:0px;word-spacing:0px;fill:#000000;fill-opacity:1;stroke:none;stroke-width:1px;stroke-linecap:butt;stroke-linejoin:miter;stroke-opacity:1"
       xml:space="preserve"><tspan
         y="217.37814"
         x="2111.9302"
         id="tspan5346"
         sodipodi:role="line">e' == d-2</tspan></text>
    <text
       xml:space="preserve"
       style="font-style:normal;font-weight:normal;font-size:54.6017952px;line-height:125%;font-family:sans-serif;letter-spacing:0px;word-spacing:0px;fill:#000000;fill-opacity:1;stroke:none;stroke-width:1px;stroke-linecap:butt;stroke-linejoin:miter;stroke-opacity:1"
       x="2111.9302"
       y="270.06033"
       id="text5348"
       sodipodi:linespacing="125%"
       transform="scale(1.0131192,0.98705068)"><tspan
         sodipodi:role="line"
         id="tspan5350"
         x="2111.9302"
         y="270.06033">e' == d-3</tspan></text>
  </g>
</svg>
