@startuml

class RequestQuote {
  title: String
  buyer: ActorRef[Quote]
}

class Quote {
  price: BigDecimal
  seller: ActorRef[BuyOrQuit]
}

abstract class BuyOrQuit
class Buy {
  address: Address
  buyer: ActorRef[ShippingDate]
}
Buy --|> BuyOrQuit
Quit --|> BuyOrQuit

class ShippingDate {
  date: Date
}
@enduml